module github.com/fabcar/go

go 1.13

require (
	github.com/hyperledger/fabric v2.1.1+incompatible
	// github.com/golang/protobuf v1.3.2
	// github.com/hyperledger/fabric v2.1.1+incompatible
	// github.com/golang/protobuf v1.3.5
	// github.com/hyperledger/fabric v2.1.0+incompatible
	github.com/hyperledger/fabric-chaincode-go v0.0.0-20220920210243-7bc6fa0dd58b
	github.com/hyperledger/fabric-protos-go v0.0.0-20220827195505-ce4c067a561d
	github.com/pkg/errors v0.9.1 // indirect
	github.com/sykesm/zap-logfmt v0.0.3 // indirect
	go.uber.org/zap v1.15.0 // indirect
)




